﻿{
  "content": [
    {
      "field": {
        "description": "Id da ocorrencia",
        "datatype": "Text",
        "required": true,
        "alias": "id_ocorrencia",
        "multivalued": false,
        "indices": [
          "Textual",
          "Ordenado"
        ],
        "name": "id_ocorrencia"
      }
    },
    {
      "field": {
        "description": "Observacao",
        "datatype": "Text",
        "required": true,
        "alias": "observacao",
        "multivalued": false,
        "indices": [
          "Textual",
          "Ordenado"
        ],
        "name": "observacao"
      }
    },
    {
      "field": {
        "description": "Imagens",
        "datatype": "Image",
        "required": false,
        "alias": "lista_imagens",
        "multivalued": true,
        "indices": [
        ],
        "name": "lista_imagens"
      }
    },
    {
      "field": {
        "description": "Data Entrada",
        "datatype": "Date",
        "required": true,
        "alias": "data_entrada",
        "multivalued": false,
        "indices": [
          "Textual",
          "Ordenado"
        ],
        "name": "data_entrada"
      }
    },
    {
      "field": {
        "description": "Hora Entrada",
        "datatype": "Time",
        "required": true,
        "alias": "hora_entrada",
        "multivalued": false,
        "indices": [
          "Textual",
          "Ordenado"
        ],
        "name": "hora_entrada"
      }
    },
    {
      "field": {
        "description": "Id pagina",
        "datatype": "Text",
        "required": true,
        "alias": "pagina_id",
        "multivalued": false,
        "indices": [
          "Textual",
          "Ordenado"
        ],
        "name": "pagina_id"
      }
    },
    {
      "field": {
        "description": "Data do envio",
        "datatype": "Date",
        "required": true,
        "alias": "data_envio",
        "multivalued": false,
        "indices": [
          "Textual",
          "Ordenado"
        ],
        "name": "data_envio"
      }
    },
    {
      "field": {
        "description": "Checagem de notificação no envio",
        "datatype": "Boolean",
        "required": true,
        "alias": "enviado",
        "multivalued": false,
        "indices": [
          "Textual",
          "Ordenado"
        ],
        "name": "enviado"
      }
    },
    {
      "field": {
        "description": "Placa",
        "datatype": "Text",
        "required": true,
        "alias": "placa",
        "multivalued": false,
        "indices": [
          "Textual",
          "Ordenado"
        ],
        "name": "placa"
      }
    },
    {
      "field": {
        "description": "Nome Motorista",
        "datatype": "Text",
        "required": true,
        "alias": "nome_motorista",
        "multivalued": false,
        "indices": [
          "Textual",
          "Ordenado"
        ],
        "name": "nome_motorista"
      }
    },
    {
      "field": {
        "description": "Documento Motorista",
        "datatype": "Text",
        "required": true,
        "alias": "documento_motorista",
        "multivalued": false,
        "indices": [
          "Textual",
          "Ordenado"
        ],
        "name": "documento_motorista"
      }
    },
    {
      "field": {
        "description": "Ocupantes",
        "datatype": "Text",
        "required": true,
        "alias": "lista_ocupantes",
        "multivalued": true,
        "indices": [
          "Textual",
          "Ordenado"
        ],
        "name": "lista_ocupantes"
      }
    }
  ],

  "metadata": {
    "idx_exp": false,
    "description": "Entrada Veiculos",
    "color": "#000000",
    "file_ext_time": 0,
    "idx_exp_time": 0,
    "idx_exp_url": "",
    "password": "3Ax!vj6gV#DEtR",
    "file_ext": false,
    "name": "$id_livro$_entrada_veiculos"
  }
}